[
    {
        "model": "carts.discounts",
        "pk": 1,
        "fields":{
            "article": 2,
            "type_discount": "amount",
            "value": 25
        }
    }, {
        "model": "carts.discounts",
        "pk": 2,
        "fields":{
            "article": 5,
            "type_discount": "percentage",
            "value": 30
        }
    }, {
        "model": "carts.discounts",
        "pk": 3,
        "fields":{
            "article": 6,
            "type_discount": "percentage",
            "value": 30
        }
    }, {
        "model": "carts.discounts",
        "pk": 4,
        "fields":{
            "article": 7,
            "type_discount": "percentage",
            "value": 25
        }
    }, {
        "model": "carts.discounts",
        "pk": 5,
        "fields":{
            "article": 8,
            "type_discount": "percentage",
            "value": 10
        }
    }
]