[
    {
        "model": "carts.cart",
        "pk": 1,
        "fields":{
        }
    },
    {
        "model": "carts.cart",
        "pk": 2,
        "fields":{
        }
    },
    {
        "model": "carts.cart",
        "pk": 3,
        "fields":{
        }
    }
]